p 20 46
e 11 2 0.30 21
e 11 5 0.30 19
e 11 8 0.30 9
e 11 10 0.30 27
e 11 15 0.30 24
e 2 4 0.30 19
e 2 8 0.30 15
e 2 1 0.30 59
e 2 13 0.30 58
e 2 15 0.30 29
e 2 18 0.30 21
e 3 7 0.30 10
e 3 9 0.30 20
e 3 14 0.30 6
e 3 17 0.30 9
e 4 7 0.30 18
e 4 13 0.30 53
e 4 18 0.30 22
e 4 19 0.30 41
e 4 12 0.30 15
e 5 10 0.30 10
e 5 15 0.30 26
e 5 16 0.30 9
e 6 13 0.30 15
e 6 19 0.30 23
e 7 9 0.30 13
e 7 17 0.30 13
e 7 18 0.30 17
e 7 12 0.30 9
e 8 10 0.30 35
e 8 1 0.30 56
e 9 20 0.30 36
e 9 14 0.30 23
e 9 19 0.30 44
e 9 12 0.30 8
e 10 16 0.30 5
e 1 13 0.30 28
e 20 14 0.30 27
e 13 19 0.30 36
e 14 15 0.30 38
e 14 17 0.30 14
e 15 16 0.30 33
e 15 17 0.30 27
e 15 18 0.30 23
e 17 18 0.30 6
e 19 12 0.30 42
