p 20 46
e 11 2 0.50 21
e 11 5 0.50 19
e 11 8 0.50 9
e 11 10 0.50 27
e 11 15 0.50 24
e 2 4 0.50 19
e 2 8 0.50 15
e 2 1 0.50 59
e 2 13 0.50 58
e 2 15 0.50 29
e 2 18 0.50 21
e 3 7 0.50 10
e 3 9 0.50 20
e 3 14 0.50 6
e 3 17 0.50 9
e 4 7 0.50 18
e 4 13 0.50 53
e 4 18 0.50 22
e 4 19 0.50 41
e 4 12 0.50 15
e 5 10 0.50 10
e 5 15 0.50 26
e 5 16 0.50 9
e 6 13 0.50 15
e 6 19 0.50 23
e 7 9 0.50 13
e 7 17 0.50 13
e 7 18 0.50 17
e 7 12 0.50 9
e 8 10 0.50 35
e 8 1 0.50 56
e 9 20 0.50 36
e 9 14 0.50 23
e 9 19 0.50 44
e 9 12 0.50 8
e 10 16 0.50 5
e 1 13 0.50 28
e 20 14 0.50 27
e 13 19 0.50 36
e 14 15 0.50 38
e 14 17 0.50 14
e 15 16 0.50 33
e 15 17 0.50 27
e 15 18 0.50 23
e 17 18 0.50 6
e 19 12 0.50 42
