p 50 128
e 21 3 0.50 26
e 21 4 0.50 18
e 21 28 0.50 26
e 21 42 0.50 25
e 21 44 0.50 6
e 21 48 0.50 4
e 21 47 0.50 22
e 2 12 0.50 15
e 2 30 0.50 16
e 2 32 0.50 23
e 2 37 0.50 18
e 2 39 0.50 9
e 2 41 0.50 14
e 2 45 0.50 14
e 2 49 0.50 17
e 3 22 0.50 12
e 3 32 0.50 13
e 3 37 0.50 12
e 3 42 0.50 17
e 3 44 0.50 24
e 4 23 0.50 15
e 4 34 0.50 7
e 4 47 0.50 7
e 5 8 0.50 14
e 5 10 0.50 20
e 5 11 0.50 17
e 5 25 0.50 17
e 5 29 0.50 20
e 5 35 0.50 27
e 6 15 0.50 13
e 6 19 0.50 10
e 6 29 0.50 25
e 6 31 0.50 16
e 6 40 0.50 12
e 7 14 0.50 9
e 7 18 0.50 4
e 7 26 0.50 17
e 7 33 0.50 15
e 8 10 0.50 22
e 8 22 0.50 8
e 8 32 0.50 9
e 8 35 0.50 30
e 8 42 0.50 14
e 9 30 0.50 1
e 9 38 0.50 10
e 9 41 0.50 12
e 9 49 0.50 9
e 10 11 0.50 23
e 10 20 0.50 27
e 10 24 0.50 17
e 10 27 0.50 14
e 10 28 0.50 14
e 10 42 0.50 17
e 11 13 0.50 15
e 11 20 0.50 13
e 11 25 0.50 5
e 12 14 0.50 22
e 12 18 0.50 19
e 12 26 0.50 15
e 12 32 0.50 28
e 12 35 0.50 19
e 12 41 0.50 13
e 13 15 0.50 37
e 13 20 0.50 9
e 13 25 0.50 16
e 13 29 0.50 21
e 13 36 0.50 13
e 14 18 0.50 6
e 14 19 0.50 48
e 14 31 0.50 32
e 14 35 0.50 24
e 15 19 0.50 14
e 15 29 0.50 32
e 15 36 0.50 49
e 16 1 0.50 8
e 16 24 0.50 23
e 16 36 0.50 26
e 16 43 0.50 33
e 17 38 0.50 5
e 17 50 0.50 4
e 17 49 0.50 24
e 18 26 0.50 18
e 19 31 0.50 24
e 20 24 0.50 29
e 20 36 0.50 9
e 1 36 0.50 32
e 22 32 0.50 11
e 22 42 0.50 8
e 23 34 0.50 8
e 23 43 0.50 6
e 23 47 0.50 10
e 24 27 0.50 5
e 24 36 0.50 31
e 24 43 0.50 15
e 25 29 0.50 9
e 26 33 0.50 5
e 26 38 0.50 14
e 26 41 0.50 5
e 27 28 0.50 22
e 27 43 0.50 13
e 27 47 0.50 21
e 28 42 0.50 4
e 28 47 0.50 22
e 29 31 0.50 22
e 29 35 0.50 28
e 29 40 0.50 17
e 30 41 0.50 13
e 30 49 0.50 9
e 31 35 0.50 18
e 31 40 0.50 7
e 32 35 0.50 30
e 32 37 0.50 17
e 33 38 0.50 13
e 33 50 0.50 10
e 34 47 0.50 4
e 37 44 0.50 31
e 37 45 0.50 6
e 37 46 0.50 21
e 38 41 0.50 15
e 38 50 0.50 7
e 38 49 0.50 19
e 39 45 0.50 6
e 39 46 0.50 12
e 39 49 0.50 14
e 43 47 0.50 13
e 44 48 0.50 1
e 45 46 0.50 15
e 46 49 0.50 6
