p 50 132
e 1 22 0.60 15
e 1 26 0.60 23
e 1 36 0.60 32
e 1 45 0.60 57
e 2 27 0.60 8
e 2 30 0.60 10
e 2 40 0.60 11
e 2 47 0.60 10
e 2 20 0.60 23
e 3 16 0.60 23
e 3 19 0.60 14
e 3 34 0.60 24
e 3 42 0.60 24
e 3 43 0.60 16
e 3 46 0.60 23
e 4 25 0.60 14
e 4 29 0.60 7
e 4 33 0.60 3
e 4 38 0.60 19
e 5 16 0.60 6
e 5 37 0.60 8
e 5 38 0.60 15
e 5 45 0.60 13
e 5 46 0.60 18
e 5 48 0.60 29
e 6 8 0.60 19
e 6 10 0.60 22
e 6 12 0.60 19
e 6 50 0.60 19
e 6 28 0.60 13
e 6 32 0.60 30
e 7 14 0.60 31
e 7 18 0.60 4
e 7 23 0.60 18
e 7 31 0.60 12
e 7 48 0.60 23
e 8 10 0.60 13
e 8 12 0.60 19
e 8 13 0.60 12
e 8 40 0.60 4
e 8 47 0.60 6
e 9 11 0.60 23
e 9 14 0.60 4
e 9 20 0.60 32
e 10 13 0.60 10
e 10 21 0.60 21
e 10 32 0.60 26
e 10 33 0.60 9
e 11 49 0.60 8
e 11 20 0.60 25
e 12 27 0.60 16
e 12 28 0.60 20
e 12 40 0.60 18
e 12 49 0.60 58
e 13 29 0.60 7
e 13 33 0.60 9
e 13 39 0.60 8
e 13 44 0.60 13
e 13 47 0.60 11
e 14 17 0.60 28
e 14 18 0.60 30
e 14 23 0.60 37
e 14 20 0.60 33
e 15 25 0.60 8
e 15 34 0.60 12
e 15 35 0.60 8
e 15 37 0.60 7
e 15 38 0.60 4
e 16 34 0.60 19
e 16 37 0.60 8
e 16 46 0.60 15
e 17 18 0.60 15
e 17 26 0.60 9
e 18 26 0.60 17
e 18 31 0.60 12
e 19 46 0.60 16
e 50 28 0.60 14
e 50 32 0.60 35
e 50 42 0.60 39
e 21 24 0.60 7
e 21 32 0.60 15
e 21 33 0.60 21
e 21 34 0.60 7
e 21 42 0.60 14
e 21 43 0.60 11
e 22 26 0.60 21
e 22 31 0.60 24
e 22 36 0.60 17
e 22 48 0.60 25
e 23 29 0.60 19
e 23 38 0.60 33
e 23 41 0.60 8
e 23 44 0.60 9
e 23 48 0.60 31
e 23 20 0.60 30
e 24 25 0.60 5
e 24 33 0.60 18
e 24 34 0.60 1
e 24 35 0.60 4
e 25 33 0.60 16
e 25 35 0.60 1
e 25 38 0.60 11
e 26 31 0.60 16
e 27 40 0.60 16
e 27 49 0.60 43
e 27 20 0.60 24
e 29 33 0.60 7
e 29 38 0.60 23
e 29 44 0.60 12
e 30 39 0.60 6
e 30 41 0.60 9
e 30 44 0.60 10
e 30 47 0.60 11
e 30 20 0.60 25
e 31 48 0.60 13
e 32 42 0.60 4
e 34 35 0.60 5
e 34 37 0.60 15
e 34 43 0.60 16
e 36 45 0.60 26
e 36 48 0.60 15
e 37 38 0.60 8
e 38 48 0.60 25
e 39 44 0.60 11
e 39 47 0.60 7
e 40 47 0.60 3
e 41 44 0.60 4
e 41 20 0.60 26
e 42 43 0.60 8
e 45 46 0.60 18
e 45 48 0.60 30
e 49 20 0.60 23
