p 50 94
e 1 25 0.500000 139
e 2 4 0.500000 81
e 2 5 0.500000 230
e 2 32 0.500000 189
e 2 3 0.500000 200
e 2 25 0.500000 332
e 3 43 0.500000 146
e 3 12 0.500000 125
e 3 24 0.500000 200
e 3 33 0.500000 194
e 3 32 0.500000 117
e 4 9 0.500000 278
e 4 20 0.500000 348
e 4 32 0.500000 202
e 4 21 0.500000 433
e 5 34 0.500000 122
e 5 25 0.500000 220
e 5 24 0.500000 73
e 6 19 0.500000 171
e 6 10 0.500000 92
e 6 16 0.500000 125
e 7 43 0.500000 130
e 8 31 0.500000 188
e 8 11 0.500000 264
e 8 18 0.500000 283
e 8 39 0.500000 177
e 8 14 0.500000 175
e 9 42 0.500000 199
e 9 12 0.500000 125
e 10 19 0.500000 128
e 10 16 0.500000 139
e 10 22 0.500000 36
e 11 42 0.500000 328
e 11 31 0.500000 243
e 11 18 0.500000 30
e 12 42 0.500000 139
e 12 32 0.500000 100
e 12 40 0.500000 161
e 13 31 0.500000 20
e 13 47 0.500000 177
e 13 17 0.500000 162
e 13 39 0.500000 139
e 14 39 0.500000 90
e 15 22 0.500000 136
e 15 23 0.500000 61
e 15 16 0.500000 72
e 16 27 0.500000 182
e 17 42 0.500000 72
e 17 31 0.500000 170
e 17 47 0.500000 149
e 17 40 0.500000 42
e 18 37 0.500000 80
e 18 50 0.500000 408
e 19 22 0.500000 136
e 19 46 0.500000 215
e 20 37 0.500000 302
e 21 37 0.500000 247
e 22 46 0.500000 282
e 22 23 0.500000 172
e 22 35 0.500000 228
e 23 36 0.500000 149
e 24 26 0.500000 148
e 24 34 0.500000 112
e 24 33 0.500000 41
e 25 34 0.500000 191
e 26 34 0.500000 124
e 26 48 0.500000 51
e 27 38 0.500000 250
e 27 36 0.500000 85
e 28 47 0.500000 126
e 28 44 0.500000 28
e 28 35 0.500000 188
e 28 46 0.500000 150
e 29 35 0.500000 126
e 29 33 0.500000 232
e 29 36 0.500000 303
e 30 42 0.500000 327
e 31 42 0.500000 214
e 31 39 0.500000 150
e 33 48 0.500000 153
e 34 49 0.500000 194
e 35 36 0.500000 272
e 35 45 0.500000 163
e 36 48 0.500000 236
e 38 48 0.500000 161
e 39 46 0.500000 172
e 39 47 0.500000 197
e 39 44 0.500000 124
e 40 41 0.500000 85
e 40 43 0.500000 153
e 41 47 0.500000 73
e 43 45 0.500000 139
e 44 47 0.500000 141
e 45 47 0.500000 128
